<?xml version="1.0" encoding="utf-8"?>
<!DOCTYPE eagle SYSTEM "eagle.dtd">
<eagle version="6.1">
<drawing>
<settings>
<setting alwaysvectorfont="no"/>
<setting verticaltext="up"/>
</settings>
<grid distance="0.1" unitdist="inch" unit="inch" style="lines" multiple="1" display="no" altdistance="0.01" altunitdist="inch" altunit="inch"/>
<layers>
<layer number="1" name="Top" color="4" fill="1" visible="yes" active="yes"/>
<layer number="2" name="Route2" color="1" fill="3" visible="yes" active="yes"/>
<layer number="3" name="Route3" color="4" fill="3" visible="yes" active="yes"/>
<layer number="4" name="Route4" color="1" fill="4" visible="yes" active="yes"/>
<layer number="5" name="Route5" color="4" fill="4" visible="yes" active="yes"/>
<layer number="6" name="Route6" color="1" fill="8" visible="yes" active="yes"/>
<layer number="7" name="Route7" color="4" fill="8" visible="yes" active="yes"/>
<layer number="8" name="Route8" color="1" fill="2" visible="yes" active="yes"/>
<layer number="9" name="Route9" color="4" fill="2" visible="yes" active="yes"/>
<layer number="10" name="Route10" color="1" fill="7" visible="yes" active="yes"/>
<layer number="11" name="Route11" color="4" fill="7" visible="yes" active="yes"/>
<layer number="12" name="Route12" color="1" fill="5" visible="yes" active="yes"/>
<layer number="13" name="Route13" color="4" fill="5" visible="yes" active="yes"/>
<layer number="14" name="Route14" color="1" fill="6" visible="yes" active="yes"/>
<layer number="15" name="Route15" color="4" fill="6" visible="yes" active="yes"/>
<layer number="16" name="Bottom" color="1" fill="1" visible="yes" active="yes"/>
<layer number="17" name="Pads" color="2" fill="1" visible="yes" active="yes"/>
<layer number="18" name="Vias" color="2" fill="1" visible="yes" active="yes"/>
<layer number="19" name="Unrouted" color="6" fill="1" visible="yes" active="yes"/>
<layer number="20" name="Dimension" color="15" fill="1" visible="yes" active="yes"/>
<layer number="21" name="tPlace" color="7" fill="1" visible="yes" active="yes"/>
<layer number="22" name="bPlace" color="7" fill="1" visible="yes" active="yes"/>
<layer number="23" name="tOrigins" color="15" fill="1" visible="yes" active="yes"/>
<layer number="24" name="bOrigins" color="15" fill="1" visible="yes" active="yes"/>
<layer number="25" name="tNames" color="7" fill="1" visible="yes" active="yes"/>
<layer number="26" name="bNames" color="7" fill="1" visible="yes" active="yes"/>
<layer number="27" name="tValues" color="7" fill="1" visible="yes" active="yes"/>
<layer number="28" name="bValues" color="7" fill="1" visible="yes" active="yes"/>
<layer number="29" name="tStop" color="7" fill="3" visible="yes" active="yes"/>
<layer number="30" name="bStop" color="7" fill="6" visible="no" active="yes"/>
<layer number="31" name="tCream" color="7" fill="4" visible="yes" active="yes"/>
<layer number="32" name="bCream" color="7" fill="5" visible="no" active="yes"/>
<layer number="33" name="tFinish" color="6" fill="3" visible="no" active="yes"/>
<layer number="34" name="bFinish" color="6" fill="6" visible="no" active="yes"/>
<layer number="35" name="tGlue" color="7" fill="4" visible="no" active="yes"/>
<layer number="36" name="bGlue" color="7" fill="5" visible="no" active="yes"/>
<layer number="37" name="tTest" color="7" fill="1" visible="no" active="yes"/>
<layer number="38" name="bTest" color="7" fill="1" visible="no" active="yes"/>
<layer number="39" name="tKeepout" color="4" fill="11" visible="yes" active="yes"/>
<layer number="40" name="bKeepout" color="1" fill="11" visible="yes" active="yes"/>
<layer number="41" name="tRestrict" color="4" fill="10" visible="yes" active="yes"/>
<layer number="42" name="bRestrict" color="1" fill="10" visible="yes" active="yes"/>
<layer number="43" name="vRestrict" color="2" fill="10" visible="yes" active="yes"/>
<layer number="44" name="Drills" color="7" fill="1" visible="no" active="yes"/>
<layer number="45" name="Holes" color="7" fill="1" visible="no" active="yes"/>
<layer number="46" name="Milling" color="3" fill="1" visible="no" active="yes"/>
<layer number="47" name="Measures" color="7" fill="1" visible="no" active="yes"/>
<layer number="48" name="Document" color="7" fill="1" visible="yes" active="yes"/>
<layer number="49" name="Reference" color="7" fill="1" visible="yes" active="yes"/>
<layer number="51" name="tDocu" color="14" fill="1" visible="yes" active="yes"/>
<layer number="52" name="bDocu" color="7" fill="1" visible="yes" active="yes"/>
<layer number="90" name="Modules" color="5" fill="1" visible="yes" active="yes"/>
<layer number="91" name="Nets" color="2" fill="1" visible="yes" active="yes"/>
<layer number="92" name="Busses" color="1" fill="1" visible="yes" active="yes"/>
<layer number="93" name="Pins" color="2" fill="1" visible="yes" active="yes"/>
<layer number="94" name="Symbols" color="4" fill="1" visible="yes" active="yes"/>
<layer number="95" name="Names" color="7" fill="1" visible="yes" active="yes"/>
<layer number="96" name="Values" color="7" fill="1" visible="yes" active="yes"/>
<layer number="97" name="Info" color="7" fill="1" visible="yes" active="yes"/>
<layer number="98" name="Guide" color="6" fill="1" visible="yes" active="yes"/>
</layers>
<library>
<packages>
<package name="LQFP100">
<text x="-1.6" y="9" size="0.8128" layer="25" font="vector">&gt;Name</text>
<smd name="26" x="-6" y="-7.68" dx="0.28" dy="1.56" layer="1" roundness="25"/>
<smd name="27" x="-5.5" y="-7.68" dx="0.28" dy="1.56" layer="1" roundness="25"/>
<smd name="28" x="-5" y="-7.68" dx="0.28" dy="1.56" layer="1" roundness="25"/>
<smd name="29" x="-4.5" y="-7.68" dx="0.28" dy="1.56" layer="1" roundness="25"/>
<smd name="30" x="-4" y="-7.68" dx="0.28" dy="1.56" layer="1" roundness="25"/>
<smd name="31" x="-3.5" y="-7.68" dx="0.28" dy="1.56" layer="1" roundness="25"/>
<smd name="32" x="-3" y="-7.68" dx="0.28" dy="1.56" layer="1" roundness="25"/>
<smd name="33" x="-2.5" y="-7.68" dx="0.28" dy="1.56" layer="1" roundness="25"/>
<smd name="34" x="-2" y="-7.68" dx="0.28" dy="1.56" layer="1" roundness="25"/>
<smd name="35" x="-1.5" y="-7.68" dx="0.28" dy="1.56" layer="1" roundness="25"/>
<smd name="36" x="-1" y="-7.68" dx="0.28" dy="1.56" layer="1" roundness="25"/>
<smd name="37" x="-0.5" y="-7.68" dx="0.28" dy="1.56" layer="1" roundness="25"/>
<smd name="38" x="0" y="-7.68" dx="0.28" dy="1.56" layer="1" roundness="25"/>
<smd name="39" x="0.5" y="-7.68" dx="0.28" dy="1.56" layer="1" roundness="25"/>
<smd name="40" x="1" y="-7.68" dx="0.28" dy="1.56" layer="1" roundness="25"/>
<smd name="41" x="1.5" y="-7.68" dx="0.28" dy="1.56" layer="1" roundness="25"/>
<smd name="42" x="2" y="-7.68" dx="0.28" dy="1.56" layer="1" roundness="25"/>
<smd name="43" x="2.5" y="-7.68" dx="0.28" dy="1.56" layer="1" roundness="25"/>
<smd name="44" x="3" y="-7.68" dx="0.28" dy="1.56" layer="1" roundness="25"/>
<smd name="45" x="3.5" y="-7.68" dx="0.28" dy="1.56" layer="1" roundness="25"/>
<smd name="46" x="4" y="-7.68" dx="0.28" dy="1.56" layer="1" roundness="25"/>
<smd name="47" x="4.5" y="-7.68" dx="0.28" dy="1.56" layer="1" roundness="25"/>
<smd name="48" x="5" y="-7.68" dx="0.28" dy="1.56" layer="1" roundness="25"/>
<smd name="49" x="5.5" y="-7.68" dx="0.28" dy="1.56" layer="1" roundness="25"/>
<smd name="50" x="6" y="-7.68" dx="0.28" dy="1.56" layer="1" roundness="25"/>
<smd name="76" x="6" y="7.68" dx="0.28" dy="1.56" layer="1" roundness="25"/>
<smd name="77" x="5.5" y="7.68" dx="0.28" dy="1.56" layer="1" roundness="25"/>
<smd name="78" x="5" y="7.68" dx="0.28" dy="1.56" layer="1" roundness="25"/>
<smd name="79" x="4.5" y="7.68" dx="0.28" dy="1.56" layer="1" roundness="25"/>
<smd name="80" x="4" y="7.68" dx="0.28" dy="1.56" layer="1" roundness="25"/>
<smd name="81" x="3.5" y="7.68" dx="0.28" dy="1.56" layer="1" roundness="25"/>
<smd name="82" x="3" y="7.68" dx="0.28" dy="1.56" layer="1" roundness="25"/>
<smd name="83" x="2.5" y="7.68" dx="0.28" dy="1.56" layer="1" roundness="25"/>
<smd name="84" x="2" y="7.68" dx="0.28" dy="1.56" layer="1" roundness="25"/>
<smd name="85" x="1.5" y="7.68" dx="0.28" dy="1.56" layer="1" roundness="25"/>
<smd name="86" x="1" y="7.68" dx="0.28" dy="1.56" layer="1" roundness="25"/>
<smd name="87" x="0.5" y="7.68" dx="0.28" dy="1.56" layer="1" roundness="25"/>
<smd name="88" x="0" y="7.68" dx="0.28" dy="1.56" layer="1" roundness="25"/>
<smd name="89" x="-0.5" y="7.68" dx="0.28" dy="1.56" layer="1" roundness="25"/>
<smd name="90" x="-1" y="7.68" dx="0.28" dy="1.56" layer="1" roundness="25"/>
<smd name="91" x="-1.5" y="7.68" dx="0.28" dy="1.56" layer="1" roundness="25"/>
<smd name="92" x="-2" y="7.68" dx="0.28" dy="1.56" layer="1" roundness="25"/>
<smd name="93" x="-2.5" y="7.68" dx="0.28" dy="1.56" layer="1" roundness="25"/>
<smd name="94" x="-3" y="7.68" dx="0.28" dy="1.56" layer="1" roundness="25"/>
<smd name="95" x="-3.5" y="7.68" dx="0.28" dy="1.56" layer="1" roundness="25"/>
<smd name="96" x="-4" y="7.68" dx="0.28" dy="1.56" layer="1" roundness="25"/>
<smd name="97" x="-4.5" y="7.68" dx="0.28" dy="1.56" layer="1" roundness="25"/>
<smd name="98" x="-5" y="7.68" dx="0.28" dy="1.56" layer="1" roundness="25"/>
<smd name="99" x="-5.5" y="7.68" dx="0.28" dy="1.56" layer="1" roundness="25"/>
<smd name="100" x="-6" y="7.68" dx="0.28" dy="1.56" layer="1" roundness="25"/>
<smd name="1" x="-7.68" y="6" dx="1.56" dy="0.28" layer="1" roundness="25"/>
<smd name="2" x="-7.68" y="5.5" dx="1.56" dy="0.28" layer="1" roundness="25"/>
<smd name="3" x="-7.68" y="5" dx="1.56" dy="0.28" layer="1" roundness="25"/>
<smd name="4" x="-7.68" y="4.5" dx="1.56" dy="0.28" layer="1" roundness="25"/>
<smd name="5" x="-7.68" y="4" dx="1.56" dy="0.28" layer="1" roundness="25"/>
<smd name="6" x="-7.68" y="3.5" dx="1.56" dy="0.28" layer="1" roundness="25"/>
<smd name="7" x="-7.68" y="3" dx="1.56" dy="0.28" layer="1" roundness="25"/>
<smd name="8" x="-7.68" y="2.5" dx="1.56" dy="0.28" layer="1" roundness="25"/>
<smd name="9" x="-7.68" y="2" dx="1.56" dy="0.28" layer="1" roundness="25"/>
<smd name="10" x="-7.68" y="1.5" dx="1.56" dy="0.28" layer="1" roundness="25"/>
<smd name="11" x="-7.68" y="1" dx="1.56" dy="0.28" layer="1" roundness="25"/>
<smd name="12" x="-7.68" y="0.5" dx="1.56" dy="0.28" layer="1" roundness="25"/>
<smd name="13" x="-7.68" y="0" dx="1.56" dy="0.28" layer="1" roundness="25"/>
<smd name="14" x="-7.68" y="-0.5" dx="1.56" dy="0.28" layer="1" roundness="25"/>
<smd name="15" x="-7.68" y="-1" dx="1.56" dy="0.28" layer="1" roundness="25"/>
<smd name="16" x="-7.68" y="-1.5" dx="1.56" dy="0.28" layer="1" roundness="25"/>
<smd name="17" x="-7.68" y="-2" dx="1.56" dy="0.28" layer="1" roundness="25"/>
<smd name="18" x="-7.68" y="-2.5" dx="1.56" dy="0.28" layer="1" roundness="25"/>
<smd name="19" x="-7.68" y="-3" dx="1.56" dy="0.28" layer="1" roundness="25"/>
<smd name="20" x="-7.68" y="-3.5" dx="1.56" dy="0.28" layer="1" roundness="25"/>
<smd name="21" x="-7.68" y="-4" dx="1.56" dy="0.28" layer="1" roundness="25"/>
<smd name="22" x="-7.68" y="-4.5" dx="1.56" dy="0.28" layer="1" roundness="25"/>
<smd name="23" x="-7.68" y="-5" dx="1.56" dy="0.28" layer="1" roundness="25"/>
<smd name="24" x="-7.68" y="-5.5" dx="1.56" dy="0.28" layer="1" roundness="25"/>
<smd name="25" x="-7.68" y="-6" dx="1.56" dy="0.28" layer="1" roundness="25"/>
<smd name="51" x="7.68" y="-6" dx="1.56" dy="0.28" layer="1" roundness="25"/>
<smd name="52" x="7.68" y="-5.5" dx="1.56" dy="0.28" layer="1" roundness="25"/>
<smd name="53" x="7.68" y="-5" dx="1.56" dy="0.28" layer="1" roundness="25"/>
<smd name="54" x="7.68" y="-4.5" dx="1.56" dy="0.28" layer="1" roundness="25"/>
<smd name="55" x="7.68" y="-4" dx="1.56" dy="0.28" layer="1" roundness="25"/>
<smd name="56" x="7.68" y="-3.5" dx="1.56" dy="0.28" layer="1" roundness="25"/>
<smd name="57" x="7.68" y="-3" dx="1.56" dy="0.28" layer="1" roundness="25"/>
<smd name="58" x="7.68" y="-2.5" dx="1.56" dy="0.28" layer="1" roundness="25"/>
<smd name="59" x="7.68" y="-2" dx="1.56" dy="0.28" layer="1" roundness="25"/>
<smd name="60" x="7.68" y="-1.5" dx="1.56" dy="0.28" layer="1" roundness="25"/>
<smd name="61" x="7.68" y="-1" dx="1.56" dy="0.28" layer="1" roundness="25"/>
<smd name="62" x="7.68" y="-0.5" dx="1.56" dy="0.28" layer="1" roundness="25"/>
<smd name="63" x="7.68" y="0" dx="1.56" dy="0.28" layer="1" roundness="25"/>
<smd name="64" x="7.68" y="0.5" dx="1.56" dy="0.28" layer="1" roundness="25"/>
<smd name="65" x="7.68" y="1" dx="1.56" dy="0.28" layer="1" roundness="25"/>
<smd name="66" x="7.68" y="1.5" dx="1.56" dy="0.28" layer="1" roundness="25"/>
<smd name="67" x="7.68" y="2" dx="1.56" dy="0.28" layer="1" roundness="25"/>
<smd name="68" x="7.68" y="2.5" dx="1.56" dy="0.28" layer="1" roundness="25"/>
<smd name="69" x="7.68" y="3" dx="1.56" dy="0.28" layer="1" roundness="25"/>
<smd name="70" x="7.68" y="3.5" dx="1.56" dy="0.28" layer="1" roundness="25"/>
<smd name="71" x="7.68" y="4" dx="1.56" dy="0.28" layer="1" roundness="25"/>
<smd name="72" x="7.68" y="4.5" dx="1.56" dy="0.28" layer="1" roundness="25"/>
<smd name="73" x="7.68" y="5" dx="1.56" dy="0.28" layer="1" roundness="25"/>
<smd name="74" x="7.68" y="5.5" dx="1.56" dy="0.28" layer="1" roundness="25"/>
<smd name="75" x="7.68" y="6" dx="1.56" dy="0.28" layer="1" roundness="25"/>
<wire x1="-6.6" y1="7.4" x2="-7.4" y2="7.4" width="0.2" layer="21"/>
<wire x1="-7.4" y1="7.4" x2="-7.4" y2="6.6" width="0.2" layer="21"/>
<wire x1="-7.4" y1="6.6" x2="-6.6" y2="7.4" width="0.2" layer="21"/>
<wire x1="6.6" y1="7.4" x2="7.4" y2="7.4" width="0.2" layer="21"/>
<wire x1="7.4" y1="7.4" x2="7.4" y2="6.6" width="0.2" layer="21"/>
<wire x1="7.4" y1="-6.6" x2="7.4" y2="-7.4" width="0.2" layer="21"/>
<wire x1="7.4" y1="-7.4" x2="6.6" y2="-7.4" width="0.2" layer="21"/>
<wire x1="-6.6" y1="-7.4" x2="-7.4" y2="-7.4" width="0.2" layer="21"/>
<wire x1="-7.4" y1="-7.4" x2="-7.4" y2="-6.6" width="0.2" layer="21"/>
<wire x1="-7.4" y1="7.4" x2="7.4" y2="7.4" width="0.2" layer="51"/>
<wire x1="7.4" y1="7.4" x2="7.4" y2="-7.4" width="0.2" layer="51"/>
<wire x1="7.4" y1="-7.4" x2="-7.4" y2="-7.4" width="0.2" layer="51"/>
<wire x1="-7.4" y1="-7.4" x2="-7.4" y2="7.4" width="0.2" layer="51"/>
<circle x="-6" y="6" radius="0.3" width="0.2" layer="51"/>
<text x="-1.6" y="-0.4" size="0.8128" layer="51" font="vector" rot="SR0">&gt;Name</text>
<text x="-7.5" y="7.5" size="0.8128" layer="21" font="vector" ratio="30" rot="R90">&gt;o</text>
</package>
</packages>
<symbols>
<symbol name="LQFP100">
<pin name="1" x="-40.64" y="30.48" length="short" direction="pas"/>
<pin name="2" x="-40.64" y="27.94" length="short" direction="pas"/>
<pin name="3" x="-40.64" y="25.4" length="short" direction="pas"/>
<pin name="4" x="-40.64" y="22.86" length="short" direction="pas"/>
<pin name="5" x="-40.64" y="20.32" length="short" direction="pas"/>
<pin name="6" x="-40.64" y="17.78" length="short" direction="pas"/>
<pin name="7" x="-40.64" y="15.24" length="short" direction="pas"/>
<pin name="8" x="-40.64" y="12.7" length="short" direction="pas"/>
<pin name="9" x="-40.64" y="10.16" length="short" direction="pas"/>
<pin name="10" x="-40.64" y="7.62" length="short" direction="pas"/>
<pin name="11" x="-40.64" y="5.08" length="short" direction="pas"/>
<pin name="12" x="-40.64" y="2.54" length="short" direction="pas"/>
<pin name="13" x="-40.64" y="0" length="short" direction="pas"/>
<pin name="14" x="-40.64" y="-2.54" length="short" direction="pas"/>
<pin name="15" x="-40.64" y="-5.08" length="short" direction="pas"/>
<pin name="16" x="-40.64" y="-7.62" length="short" direction="pas"/>
<pin name="17" x="-40.64" y="-10.16" length="short" direction="pas"/>
<pin name="18" x="-40.64" y="-12.7" length="short" direction="pas"/>
<pin name="19" x="-40.64" y="-15.24" length="short" direction="pas"/>
<pin name="20" x="-40.64" y="-17.78" length="short" direction="pas"/>
<pin name="21" x="-40.64" y="-20.32" length="short" direction="pas"/>
<pin name="22" x="-40.64" y="-22.86" length="short" direction="pas"/>
<pin name="23" x="-40.64" y="-25.4" length="short" direction="pas"/>
<pin name="24" x="-40.64" y="-27.94" length="short" direction="pas"/>
<pin name="25" x="-40.64" y="-30.48" length="short" direction="pas"/>
<pin name="26" x="-30.48" y="-40.64" length="short" direction="pas" rot="R90"/>
<pin name="27" x="-27.94" y="-40.64" length="short" direction="pas" rot="R90"/>
<pin name="28" x="-25.4" y="-40.64" length="short" direction="pas" rot="R90"/>
<pin name="29" x="-22.86" y="-40.64" length="short" direction="pas" rot="R90"/>
<pin name="30" x="-20.32" y="-40.64" length="short" direction="pas" rot="R90"/>
<pin name="31" x="-17.78" y="-40.64" length="short" direction="pas" rot="R90"/>
<pin name="32" x="-15.24" y="-40.64" length="short" direction="pas" rot="R90"/>
<pin name="33" x="-12.7" y="-40.64" length="short" direction="pas" rot="R90"/>
<pin name="34" x="-10.16" y="-40.64" length="short" direction="pas" rot="R90"/>
<pin name="35" x="-7.62" y="-40.64" length="short" direction="pas" rot="R90"/>
<pin name="36" x="-5.08" y="-40.64" length="short" direction="pas" rot="R90"/>
<pin name="37" x="-2.54" y="-40.64" length="short" direction="pas" rot="R90"/>
<pin name="38" x="0" y="-40.64" length="short" direction="pas" rot="R90"/>
<pin name="39" x="2.54" y="-40.64" length="short" direction="pas" rot="R90"/>
<pin name="40" x="5.08" y="-40.64" length="short" direction="pas" rot="R90"/>
<pin name="41" x="7.62" y="-40.64" length="short" direction="pas" rot="R90"/>
<pin name="42" x="10.16" y="-40.64" length="short" direction="pas" rot="R90"/>
<pin name="43" x="12.7" y="-40.64" length="short" direction="pas" rot="R90"/>
<pin name="44" x="15.24" y="-40.64" length="short" direction="pas" rot="R90"/>
<pin name="45" x="17.78" y="-40.64" length="short" direction="pas" rot="R90"/>
<pin name="46" x="20.32" y="-40.64" length="short" direction="pas" rot="R90"/>
<pin name="47" x="22.86" y="-40.64" length="short" direction="pas" rot="R90"/>
<pin name="48" x="25.4" y="-40.64" length="short" direction="pas" rot="R90"/>
<pin name="49" x="27.94" y="-40.64" length="short" direction="pas" rot="R90"/>
<pin name="50" x="30.48" y="-40.64" length="short" direction="pas" rot="R90"/>
<pin name="51" x="40.64" y="-30.48" length="short" direction="pas" rot="R180"/>
<pin name="52" x="40.64" y="-27.94" length="short" direction="pas" rot="R180"/>
<pin name="53" x="40.64" y="-25.4" length="short" direction="pas" rot="R180"/>
<pin name="54" x="40.64" y="-22.86" length="short" direction="pas" rot="R180"/>
<pin name="55" x="40.64" y="-20.32" length="short" direction="pas" rot="R180"/>
<pin name="56" x="40.64" y="-17.78" length="short" direction="pas" rot="R180"/>
<pin name="57" x="40.64" y="-15.24" length="short" direction="pas" rot="R180"/>
<pin name="58" x="40.64" y="-12.7" length="short" direction="pas" rot="R180"/>
<pin name="59" x="40.64" y="-10.16" length="short" direction="pas" rot="R180"/>
<pin name="60" x="40.64" y="-7.62" length="short" direction="pas" rot="R180"/>
<pin name="61" x="40.64" y="-5.08" length="short" direction="pas" rot="R180"/>
<pin name="62" x="40.64" y="-2.54" length="short" direction="pas" rot="R180"/>
<pin name="63" x="40.64" y="0" length="short" direction="pas" rot="R180"/>
<pin name="64" x="40.64" y="2.54" length="short" direction="pas" rot="R180"/>
<pin name="65" x="40.64" y="5.08" length="short" direction="pas" rot="R180"/>
<pin name="66" x="40.64" y="7.62" length="short" direction="pas" rot="R180"/>
<pin name="67" x="40.64" y="10.16" length="short" direction="pas" rot="R180"/>
<pin name="68" x="40.64" y="12.7" length="short" direction="pas" rot="R180"/>
<pin name="69" x="40.64" y="15.24" length="short" direction="pas" rot="R180"/>
<pin name="70" x="40.64" y="17.78" length="short" direction="pas" rot="R180"/>
<pin name="71" x="40.64" y="20.32" length="short" direction="pas" rot="R180"/>
<pin name="72" x="40.64" y="22.86" length="short" direction="pas" rot="R180"/>
<pin name="73" x="40.64" y="25.4" length="short" direction="pas" rot="R180"/>
<pin name="74" x="40.64" y="27.94" length="short" direction="pas" rot="R180"/>
<pin name="75" x="40.64" y="30.48" length="short" direction="pas" rot="R180"/>
<pin name="76" x="30.48" y="40.64" length="short" direction="pas" rot="R270"/>
<pin name="77" x="27.94" y="40.64" length="short" direction="pas" rot="R270"/>
<pin name="78" x="25.4" y="40.64" length="short" direction="pas" rot="R270"/>
<pin name="79" x="22.86" y="40.64" length="short" direction="pas" rot="R270"/>
<pin name="80" x="20.32" y="40.64" length="short" direction="pas" rot="R270"/>
<pin name="81" x="17.78" y="40.64" length="short" direction="pas" rot="R270"/>
<pin name="82" x="15.24" y="40.64" length="short" direction="pas" rot="R270"/>
<pin name="83" x="12.7" y="40.64" length="short" direction="pas" rot="R270"/>
<pin name="84" x="10.16" y="40.64" length="short" direction="pas" rot="R270"/>
<pin name="85" x="7.62" y="40.64" length="short" direction="pas" rot="R270"/>
<pin name="86" x="5.08" y="40.64" length="short" direction="pas" rot="R270"/>
<pin name="87" x="2.54" y="40.64" length="short" direction="pas" rot="R270"/>
<pin name="88" x="0" y="40.64" length="short" direction="pas" rot="R270"/>
<pin name="89" x="-2.54" y="40.64" length="short" direction="pas" rot="R270"/>
<pin name="90" x="-5.08" y="40.64" length="short" direction="pas" rot="R270"/>
<pin name="91" x="-7.62" y="40.64" length="short" direction="pas" rot="R270"/>
<pin name="92" x="-10.16" y="40.64" length="short" direction="pas" rot="R270"/>
<pin name="93" x="-12.7" y="40.64" length="short" direction="pas" rot="R270"/>
<pin name="94" x="-15.24" y="40.64" length="short" direction="pas" rot="R270"/>
<pin name="95" x="-17.78" y="40.64" length="short" direction="pas" rot="R270"/>
<pin name="96" x="-20.32" y="40.64" length="short" direction="pas" rot="R270"/>
<pin name="97" x="-22.86" y="40.64" length="short" direction="pas" rot="R270"/>
<pin name="98" x="-25.4" y="40.64" length="short" direction="pas" rot="R270"/>
<pin name="99" x="-27.94" y="40.64" length="short" direction="pas" rot="R270"/>
<pin name="100" x="-30.48" y="40.64" length="short" direction="pas" rot="R270"/>
<wire x1="-38.1" y1="38.1" x2="-35.56" y2="38.1" width="0.254" layer="94"/>
<wire x1="-35.56" y1="38.1" x2="38.1" y2="38.1" width="0.254" layer="94"/>
<wire x1="38.1" y1="38.1" x2="38.1" y2="-38.1" width="0.254" layer="94"/>
<wire x1="38.1" y1="-38.1" x2="-38.1" y2="-38.1" width="0.254" layer="94"/>
<wire x1="-38.1" y1="-38.1" x2="-38.1" y2="35.56" width="0.254" layer="94"/>
<wire x1="-38.1" y1="35.56" x2="-38.1" y2="38.1" width="0.254" layer="94"/>
<wire x1="-38.1" y1="35.56" x2="-35.56" y2="38.1" width="0.254" layer="94"/>
<text x="-5.08" y="7.62" size="1.778" layer="95" font="vector">&gt;Name</text>
<text x="2.54" y="-5.08" size="1.778" layer="95" font="vector" rot="R180">&gt;Value</text>
</symbol>
</symbols>
<devicesets>
<deviceset name="LQFP100">
<gates>
<gate name="G$1" symbol="LQFP100" x="0" y="0"/>
</gates>
<devices>
<device name="" package="LQFP100">
<connects>
<connect gate="G$1" pin="1" pad="1"/>
<connect gate="G$1" pin="10" pad="10"/>
<connect gate="G$1" pin="100" pad="100"/>
<connect gate="G$1" pin="11" pad="11"/>
<connect gate="G$1" pin="12" pad="12"/>
<connect gate="G$1" pin="13" pad="13"/>
<connect gate="G$1" pin="14" pad="14"/>
<connect gate="G$1" pin="15" pad="15"/>
<connect gate="G$1" pin="16" pad="16"/>
<connect gate="G$1" pin="17" pad="17"/>
<connect gate="G$1" pin="18" pad="18"/>
<connect gate="G$1" pin="19" pad="19"/>
<connect gate="G$1" pin="2" pad="2"/>
<connect gate="G$1" pin="20" pad="20"/>
<connect gate="G$1" pin="21" pad="21"/>
<connect gate="G$1" pin="22" pad="22"/>
<connect gate="G$1" pin="23" pad="23"/>
<connect gate="G$1" pin="24" pad="24"/>
<connect gate="G$1" pin="25" pad="25"/>
<connect gate="G$1" pin="26" pad="26"/>
<connect gate="G$1" pin="27" pad="27"/>
<connect gate="G$1" pin="28" pad="28"/>
<connect gate="G$1" pin="29" pad="29"/>
<connect gate="G$1" pin="3" pad="3"/>
<connect gate="G$1" pin="30" pad="30"/>
<connect gate="G$1" pin="31" pad="31"/>
<connect gate="G$1" pin="32" pad="32"/>
<connect gate="G$1" pin="33" pad="33"/>
<connect gate="G$1" pin="34" pad="34"/>
<connect gate="G$1" pin="35" pad="35"/>
<connect gate="G$1" pin="36" pad="36"/>
<connect gate="G$1" pin="37" pad="37"/>
<connect gate="G$1" pin="38" pad="38"/>
<connect gate="G$1" pin="39" pad="39"/>
<connect gate="G$1" pin="4" pad="4"/>
<connect gate="G$1" pin="40" pad="40"/>
<connect gate="G$1" pin="41" pad="41"/>
<connect gate="G$1" pin="42" pad="42"/>
<connect gate="G$1" pin="43" pad="43"/>
<connect gate="G$1" pin="44" pad="44"/>
<connect gate="G$1" pin="45" pad="45"/>
<connect gate="G$1" pin="46" pad="46"/>
<connect gate="G$1" pin="47" pad="47"/>
<connect gate="G$1" pin="48" pad="48"/>
<connect gate="G$1" pin="49" pad="49"/>
<connect gate="G$1" pin="5" pad="5"/>
<connect gate="G$1" pin="50" pad="50"/>
<connect gate="G$1" pin="51" pad="51"/>
<connect gate="G$1" pin="52" pad="52"/>
<connect gate="G$1" pin="53" pad="53"/>
<connect gate="G$1" pin="54" pad="54"/>
<connect gate="G$1" pin="55" pad="55"/>
<connect gate="G$1" pin="56" pad="56"/>
<connect gate="G$1" pin="57" pad="57"/>
<connect gate="G$1" pin="58" pad="58"/>
<connect gate="G$1" pin="59" pad="59"/>
<connect gate="G$1" pin="6" pad="6"/>
<connect gate="G$1" pin="60" pad="60"/>
<connect gate="G$1" pin="61" pad="61"/>
<connect gate="G$1" pin="62" pad="62"/>
<connect gate="G$1" pin="63" pad="63"/>
<connect gate="G$1" pin="64" pad="64"/>
<connect gate="G$1" pin="65" pad="65"/>
<connect gate="G$1" pin="66" pad="66"/>
<connect gate="G$1" pin="67" pad="67"/>
<connect gate="G$1" pin="68" pad="68"/>
<connect gate="G$1" pin="69" pad="69"/>
<connect gate="G$1" pin="7" pad="7"/>
<connect gate="G$1" pin="70" pad="70"/>
<connect gate="G$1" pin="71" pad="71"/>
<connect gate="G$1" pin="72" pad="72"/>
<connect gate="G$1" pin="73" pad="73"/>
<connect gate="G$1" pin="74" pad="74"/>
<connect gate="G$1" pin="75" pad="75"/>
<connect gate="G$1" pin="76" pad="76"/>
<connect gate="G$1" pin="77" pad="77"/>
<connect gate="G$1" pin="78" pad="78"/>
<connect gate="G$1" pin="79" pad="79"/>
<connect gate="G$1" pin="8" pad="8"/>
<connect gate="G$1" pin="80" pad="80"/>
<connect gate="G$1" pin="81" pad="81"/>
<connect gate="G$1" pin="82" pad="82"/>
<connect gate="G$1" pin="83" pad="83"/>
<connect gate="G$1" pin="84" pad="84"/>
<connect gate="G$1" pin="85" pad="85"/>
<connect gate="G$1" pin="86" pad="86"/>
<connect gate="G$1" pin="87" pad="87"/>
<connect gate="G$1" pin="88" pad="88"/>
<connect gate="G$1" pin="89" pad="89"/>
<connect gate="G$1" pin="9" pad="9"/>
<connect gate="G$1" pin="90" pad="90"/>
<connect gate="G$1" pin="91" pad="91"/>
<connect gate="G$1" pin="92" pad="92"/>
<connect gate="G$1" pin="93" pad="93"/>
<connect gate="G$1" pin="94" pad="94"/>
<connect gate="G$1" pin="95" pad="95"/>
<connect gate="G$1" pin="96" pad="96"/>
<connect gate="G$1" pin="97" pad="97"/>
<connect gate="G$1" pin="98" pad="98"/>
<connect gate="G$1" pin="99" pad="99"/>
</connects>
<technologies>
<technology name=""/>
</technologies>
</device>
</devices>
</deviceset>
</devicesets>
</library>
</drawing>
</eagle>
