<?xml version="1.0" encoding="utf-8"?>
<!DOCTYPE eagle SYSTEM "eagle.dtd">
<eagle version="6.1">
<drawing>
<settings>
<setting alwaysvectorfont="no"/>
<setting verticaltext="up"/>
</settings>
<grid distance="0.1" unitdist="inch" unit="inch" style="lines" multiple="1" display="no" altdistance="0.01" altunitdist="inch" altunit="inch"/>
<layers>
<layer number="1" name="Top" color="4" fill="1" visible="yes" active="yes"/>
<layer number="2" name="Route2" color="1" fill="3" visible="yes" active="yes"/>
<layer number="3" name="Route3" color="4" fill="3" visible="yes" active="yes"/>
<layer number="4" name="Route4" color="1" fill="4" visible="yes" active="yes"/>
<layer number="5" name="Route5" color="4" fill="4" visible="yes" active="yes"/>
<layer number="6" name="Route6" color="1" fill="8" visible="yes" active="yes"/>
<layer number="7" name="Route7" color="4" fill="8" visible="yes" active="yes"/>
<layer number="8" name="Route8" color="1" fill="2" visible="yes" active="yes"/>
<layer number="9" name="Route9" color="4" fill="2" visible="yes" active="yes"/>
<layer number="10" name="Route10" color="1" fill="7" visible="yes" active="yes"/>
<layer number="11" name="Route11" color="4" fill="7" visible="yes" active="yes"/>
<layer number="12" name="Route12" color="1" fill="5" visible="yes" active="yes"/>
<layer number="13" name="Route13" color="4" fill="5" visible="yes" active="yes"/>
<layer number="14" name="Route14" color="1" fill="6" visible="yes" active="yes"/>
<layer number="15" name="Route15" color="4" fill="6" visible="yes" active="yes"/>
<layer number="16" name="Bottom" color="1" fill="1" visible="yes" active="yes"/>
<layer number="17" name="Pads" color="2" fill="1" visible="yes" active="yes"/>
<layer number="18" name="Vias" color="2" fill="1" visible="yes" active="yes"/>
<layer number="19" name="Unrouted" color="6" fill="1" visible="yes" active="yes"/>
<layer number="20" name="Dimension" color="15" fill="1" visible="yes" active="yes"/>
<layer number="21" name="tPlace" color="7" fill="1" visible="yes" active="yes"/>
<layer number="22" name="bPlace" color="7" fill="1" visible="yes" active="yes"/>
<layer number="23" name="tOrigins" color="15" fill="1" visible="yes" active="yes"/>
<layer number="24" name="bOrigins" color="15" fill="1" visible="yes" active="yes"/>
<layer number="25" name="tNames" color="7" fill="1" visible="yes" active="yes"/>
<layer number="26" name="bNames" color="7" fill="1" visible="yes" active="yes"/>
<layer number="27" name="tValues" color="7" fill="1" visible="yes" active="yes"/>
<layer number="28" name="bValues" color="7" fill="1" visible="yes" active="yes"/>
<layer number="29" name="tStop" color="7" fill="3" visible="yes" active="yes"/>
<layer number="30" name="bStop" color="7" fill="6" visible="yes" active="yes"/>
<layer number="31" name="tCream" color="7" fill="4" visible="yes" active="yes"/>
<layer number="32" name="bCream" color="7" fill="5" visible="yes" active="yes"/>
<layer number="33" name="tFinish" color="6" fill="3" visible="yes" active="yes"/>
<layer number="34" name="bFinish" color="6" fill="6" visible="yes" active="yes"/>
<layer number="35" name="tGlue" color="7" fill="4" visible="yes" active="yes"/>
<layer number="36" name="bGlue" color="7" fill="5" visible="yes" active="yes"/>
<layer number="37" name="tTest" color="7" fill="1" visible="yes" active="yes"/>
<layer number="38" name="bTest" color="7" fill="1" visible="yes" active="yes"/>
<layer number="39" name="tKeepout" color="4" fill="11" visible="yes" active="yes"/>
<layer number="40" name="bKeepout" color="1" fill="11" visible="yes" active="yes"/>
<layer number="41" name="tRestrict" color="4" fill="10" visible="yes" active="yes"/>
<layer number="42" name="bRestrict" color="1" fill="10" visible="yes" active="yes"/>
<layer number="43" name="vRestrict" color="2" fill="10" visible="yes" active="yes"/>
<layer number="44" name="Drills" color="7" fill="1" visible="yes" active="yes"/>
<layer number="45" name="Holes" color="7" fill="1" visible="yes" active="yes"/>
<layer number="46" name="Milling" color="3" fill="1" visible="yes" active="yes"/>
<layer number="47" name="Measures" color="7" fill="1" visible="yes" active="yes"/>
<layer number="48" name="Document" color="7" fill="1" visible="yes" active="yes"/>
<layer number="49" name="Reference" color="7" fill="1" visible="yes" active="yes"/>
<layer number="51" name="tDocu" color="14" fill="1" visible="yes" active="yes"/>
<layer number="52" name="bDocu" color="7" fill="1" visible="yes" active="yes"/>
<layer number="90" name="Modules" color="5" fill="1" visible="yes" active="yes"/>
<layer number="91" name="Nets" color="2" fill="1" visible="yes" active="yes"/>
<layer number="92" name="Busses" color="1" fill="1" visible="yes" active="yes"/>
<layer number="93" name="Pins" color="2" fill="1" visible="yes" active="yes"/>
<layer number="94" name="Symbols" color="4" fill="1" visible="yes" active="yes"/>
<layer number="95" name="Names" color="7" fill="1" visible="yes" active="yes"/>
<layer number="96" name="Values" color="7" fill="1" visible="yes" active="yes"/>
<layer number="97" name="Info" color="7" fill="1" visible="yes" active="yes"/>
<layer number="98" name="Guide" color="6" fill="1" visible="yes" active="yes"/>
</layers>
<library>
<packages>
<package name="LQFP48">
<text x="-1.6" y="5.5" size="0.8128" layer="25" font="vector" rot="SR0">&gt;Name</text>
<wire x1="-3.3" y1="4" x2="-4" y2="4" width="0.2" layer="21"/>
<wire x1="-4" y1="4" x2="-4" y2="3.3" width="0.2" layer="21"/>
<wire x1="-4" y1="3.3" x2="-3.3" y2="4" width="0.2" layer="21"/>
<wire x1="3.3" y1="4" x2="4" y2="4" width="0.2" layer="21"/>
<wire x1="4" y1="4" x2="4" y2="3.3" width="0.2" layer="21"/>
<wire x1="4" y1="-3.3" x2="4" y2="-4" width="0.2" layer="21"/>
<wire x1="4" y1="-4" x2="3.3" y2="-4" width="0.2" layer="21"/>
<wire x1="-3.3" y1="-4" x2="-4" y2="-4" width="0.2" layer="21"/>
<wire x1="-4" y1="-4" x2="-4" y2="-3.3" width="0.2" layer="21"/>
<wire x1="-4" y1="4" x2="4" y2="4" width="0.2" layer="51"/>
<wire x1="4" y1="4" x2="4" y2="-4" width="0.2" layer="51"/>
<wire x1="4" y1="-4" x2="-4" y2="-4" width="0.2" layer="51"/>
<wire x1="-4" y1="-4" x2="-4" y2="4" width="0.2" layer="51"/>
<circle x="-3" y="3" radius="0.3" width="0.2" layer="51"/>
<text x="-1.6" y="-0.4" size="0.8128" layer="51" font="vector" rot="SR0">&gt;Name</text>
<text x="-4.1" y="4.1" size="0.8128" layer="21" font="vector" ratio="30" rot="R90">&gt;o</text>
<smd name="1" x="-4.18" y="2.75" dx="0.28" dy="1.56" layer="1" roundness="30" rot="R270"/>
<smd name="2" x="-4.18" y="2.25" dx="0.28" dy="1.56" layer="1" roundness="30" rot="R270"/>
<smd name="3" x="-4.18" y="1.75" dx="0.28" dy="1.56" layer="1" roundness="30" rot="R270"/>
<smd name="4" x="-4.18" y="1.25" dx="0.28" dy="1.56" layer="1" roundness="30" rot="R270"/>
<smd name="5" x="-4.18" y="0.75" dx="0.28" dy="1.56" layer="1" roundness="30" rot="R270"/>
<smd name="6" x="-4.18" y="0.25" dx="0.28" dy="1.56" layer="1" roundness="30" rot="R270"/>
<smd name="7" x="-4.18" y="-0.25" dx="0.28" dy="1.56" layer="1" roundness="30" rot="R270"/>
<smd name="8" x="-4.18" y="-0.75" dx="0.28" dy="1.56" layer="1" roundness="30" rot="R270"/>
<smd name="9" x="-4.18" y="-1.25" dx="0.28" dy="1.56" layer="1" roundness="30" rot="R270"/>
<smd name="10" x="-4.18" y="-1.75" dx="0.28" dy="1.56" layer="1" roundness="30" rot="R270"/>
<smd name="11" x="-4.18" y="-2.25" dx="0.28" dy="1.56" layer="1" roundness="30" rot="R270"/>
<smd name="12" x="-4.18" y="-2.75" dx="0.28" dy="1.56" layer="1" roundness="30" rot="R270"/>
<smd name="13" x="-2.75" y="-4.18" dx="0.28" dy="1.56" layer="1" roundness="30" rot="R180"/>
<smd name="14" x="-2.25" y="-4.18" dx="0.28" dy="1.56" layer="1" roundness="30" rot="R180"/>
<smd name="15" x="-1.75" y="-4.18" dx="0.28" dy="1.56" layer="1" roundness="30" rot="R180"/>
<smd name="16" x="-1.25" y="-4.18" dx="0.28" dy="1.56" layer="1" roundness="30" rot="R180"/>
<smd name="17" x="-0.75" y="-4.18" dx="0.28" dy="1.56" layer="1" roundness="30" rot="R180"/>
<smd name="18" x="-0.25" y="-4.18" dx="0.28" dy="1.56" layer="1" roundness="30" rot="R180"/>
<smd name="19" x="0.25" y="-4.18" dx="0.28" dy="1.56" layer="1" roundness="30" rot="R180"/>
<smd name="20" x="0.75" y="-4.18" dx="0.28" dy="1.56" layer="1" roundness="30" rot="R180"/>
<smd name="21" x="1.25" y="-4.18" dx="0.28" dy="1.56" layer="1" roundness="30" rot="R180"/>
<smd name="22" x="1.75" y="-4.18" dx="0.28" dy="1.56" layer="1" roundness="30" rot="R180"/>
<smd name="23" x="2.25" y="-4.18" dx="0.28" dy="1.56" layer="1" roundness="30" rot="R180"/>
<smd name="24" x="2.75" y="-4.18" dx="0.28" dy="1.56" layer="1" roundness="30" rot="R180"/>
<smd name="25" x="4.18" y="-2.75" dx="0.28" dy="1.56" layer="1" roundness="30" rot="R270"/>
<smd name="26" x="4.18" y="-2.25" dx="0.28" dy="1.56" layer="1" roundness="30" rot="R270"/>
<smd name="27" x="4.18" y="-1.75" dx="0.28" dy="1.56" layer="1" roundness="30" rot="R270"/>
<smd name="28" x="4.18" y="-1.25" dx="0.28" dy="1.56" layer="1" roundness="30" rot="R270"/>
<smd name="29" x="4.18" y="-0.75" dx="0.28" dy="1.56" layer="1" roundness="30" rot="R270"/>
<smd name="30" x="4.18" y="-0.25" dx="0.28" dy="1.56" layer="1" roundness="30" rot="R270"/>
<smd name="31" x="4.18" y="0.25" dx="0.28" dy="1.56" layer="1" roundness="30" rot="R270"/>
<smd name="32" x="4.18" y="0.75" dx="0.28" dy="1.56" layer="1" roundness="30" rot="R270"/>
<smd name="33" x="4.18" y="1.25" dx="0.28" dy="1.56" layer="1" roundness="30" rot="R270"/>
<smd name="34" x="4.18" y="1.75" dx="0.28" dy="1.56" layer="1" roundness="30" rot="R270"/>
<smd name="35" x="4.18" y="2.25" dx="0.28" dy="1.56" layer="1" roundness="30" rot="R270"/>
<smd name="36" x="4.18" y="2.75" dx="0.28" dy="1.56" layer="1" roundness="30" rot="R270"/>
<smd name="37" x="2.75" y="4.18" dx="0.28" dy="1.56" layer="1" roundness="30" rot="R180"/>
<smd name="38" x="2.25" y="4.18" dx="0.28" dy="1.56" layer="1" roundness="30" rot="R180"/>
<smd name="39" x="1.75" y="4.18" dx="0.28" dy="1.56" layer="1" roundness="30" rot="R180"/>
<smd name="40" x="1.25" y="4.18" dx="0.28" dy="1.56" layer="1" roundness="30" rot="R180"/>
<smd name="41" x="0.75" y="4.18" dx="0.28" dy="1.56" layer="1" roundness="30" rot="R180"/>
<smd name="42" x="0.25" y="4.18" dx="0.28" dy="1.56" layer="1" roundness="30" rot="R180"/>
<smd name="43" x="-0.25" y="4.18" dx="0.28" dy="1.56" layer="1" roundness="30" rot="R180"/>
<smd name="44" x="-0.75" y="4.18" dx="0.28" dy="1.56" layer="1" roundness="30" rot="R180"/>
<smd name="45" x="-1.25" y="4.18" dx="0.28" dy="1.56" layer="1" roundness="30" rot="R180"/>
<smd name="46" x="-1.75" y="4.18" dx="0.28" dy="1.56" layer="1" roundness="30" rot="R180"/>
<smd name="47" x="-2.25" y="4.18" dx="0.28" dy="1.56" layer="1" roundness="30" rot="R180"/>
<smd name="48" x="-2.75" y="4.18" dx="0.28" dy="1.56" layer="1" roundness="30" rot="R180"/>
</package>
</packages>
<symbols>
<symbol name="LQFP48">
<pin name="1" x="-22.86" y="12.7" length="short" direction="pas"/>
<pin name="2" x="-22.86" y="10.16" length="short" direction="pas"/>
<pin name="3" x="-22.86" y="7.62" length="short" direction="pas"/>
<pin name="4" x="-22.86" y="5.08" length="short" direction="pas"/>
<pin name="5" x="-22.86" y="2.54" length="short" direction="pas"/>
<pin name="6" x="-22.86" y="0" length="short" direction="pas"/>
<pin name="7" x="-22.86" y="-2.54" length="short" direction="pas"/>
<pin name="8" x="-22.86" y="-5.08" length="short" direction="pas"/>
<pin name="9" x="-22.86" y="-7.62" length="short" direction="pas"/>
<pin name="10" x="-22.86" y="-10.16" length="short" direction="pas"/>
<pin name="11" x="-22.86" y="-12.7" length="short" direction="pas"/>
<pin name="12" x="-22.86" y="-15.24" length="short" direction="pas"/>
<pin name="13" x="-12.7" y="-25.4" length="short" direction="pas" rot="R90"/>
<pin name="14" x="-10.16" y="-25.4" length="short" direction="pas" rot="R90"/>
<pin name="15" x="-7.62" y="-25.4" length="short" direction="pas" rot="R90"/>
<pin name="16" x="-5.08" y="-25.4" length="short" direction="pas" rot="R90"/>
<pin name="17" x="-2.54" y="-25.4" length="short" direction="pas" rot="R90"/>
<pin name="18" x="0" y="-25.4" length="short" direction="pas" rot="R90"/>
<pin name="19" x="2.54" y="-25.4" length="short" direction="pas" rot="R90"/>
<pin name="20" x="5.08" y="-25.4" length="short" direction="pas" rot="R90"/>
<pin name="21" x="7.62" y="-25.4" length="short" direction="pas" rot="R90"/>
<pin name="22" x="10.16" y="-25.4" length="short" direction="pas" rot="R90"/>
<pin name="23" x="12.7" y="-25.4" length="short" direction="pas" rot="R90"/>
<pin name="24" x="15.24" y="-25.4" length="short" direction="pas" rot="R90"/>
<pin name="25" x="25.4" y="-15.24" length="short" direction="pas" rot="R180"/>
<pin name="26" x="25.4" y="-12.7" length="short" direction="pas" rot="R180"/>
<pin name="27" x="25.4" y="-10.16" length="short" direction="pas" rot="R180"/>
<pin name="28" x="25.4" y="-7.62" length="short" direction="pas" rot="R180"/>
<pin name="29" x="25.4" y="-5.08" length="short" direction="pas" rot="R180"/>
<pin name="30" x="25.4" y="-2.54" length="short" direction="pas" rot="R180"/>
<pin name="31" x="25.4" y="0" length="short" direction="pas" rot="R180"/>
<pin name="32" x="25.4" y="2.54" length="short" direction="pas" rot="R180"/>
<pin name="33" x="25.4" y="5.08" length="short" direction="pas" rot="R180"/>
<pin name="34" x="25.4" y="7.62" length="short" direction="pas" rot="R180"/>
<pin name="35" x="25.4" y="10.16" length="short" direction="pas" rot="R180"/>
<pin name="36" x="25.4" y="12.7" length="short" direction="pas" rot="R180"/>
<pin name="37" x="15.24" y="22.86" length="short" direction="pas" rot="R270"/>
<pin name="38" x="12.7" y="22.86" length="short" direction="pas" rot="R270"/>
<pin name="39" x="10.16" y="22.86" length="short" direction="pas" rot="R270"/>
<pin name="40" x="7.62" y="22.86" length="short" direction="pas" rot="R270"/>
<pin name="41" x="5.08" y="22.86" length="short" direction="pas" rot="R270"/>
<pin name="42" x="2.54" y="22.86" length="short" direction="pas" rot="R270"/>
<pin name="43" x="0" y="22.86" length="short" direction="pas" rot="R270"/>
<pin name="44" x="-2.54" y="22.86" length="short" direction="pas" rot="R270"/>
<pin name="45" x="-5.08" y="22.86" length="short" direction="pas" rot="R270"/>
<pin name="46" x="-7.62" y="22.86" length="short" direction="pas" rot="R270"/>
<pin name="47" x="-10.16" y="22.86" length="short" direction="pas" rot="R270"/>
<pin name="48" x="-12.7" y="22.86" length="short" direction="pas" rot="R270"/>
<wire x1="-20.32" y1="20.32" x2="-20.32" y2="17.78" width="0.254" layer="94"/>
<wire x1="-20.32" y1="17.78" x2="-20.32" y2="-22.86" width="0.254" layer="94"/>
<wire x1="-20.32" y1="-22.86" x2="22.86" y2="-22.86" width="0.254" layer="94"/>
<wire x1="22.86" y1="-22.86" x2="22.86" y2="20.32" width="0.254" layer="94"/>
<wire x1="22.86" y1="20.32" x2="-17.78" y2="20.32" width="0.254" layer="94"/>
<wire x1="-17.78" y1="20.32" x2="-20.32" y2="20.32" width="0.254" layer="94"/>
<wire x1="-20.32" y1="17.78" x2="-17.78" y2="20.32" width="0.254" layer="94"/>
<text x="-5.08" y="7.62" size="1.778" layer="95" font="vector">&gt;Name</text>
<text x="2.54" y="-5.08" size="1.778" layer="95" font="vector" rot="R180">&gt;Value</text>
</symbol>
</symbols>
<devicesets>
<deviceset name="LQFP48">
<gates>
<gate name="G$1" symbol="LQFP48" x="0" y="0"/>
</gates>
<devices>
<device name="" package="LQFP48">
<connects>
<connect gate="G$1" pin="1" pad="1"/>
<connect gate="G$1" pin="10" pad="10"/>
<connect gate="G$1" pin="11" pad="11"/>
<connect gate="G$1" pin="12" pad="12"/>
<connect gate="G$1" pin="13" pad="13"/>
<connect gate="G$1" pin="14" pad="14"/>
<connect gate="G$1" pin="15" pad="15"/>
<connect gate="G$1" pin="16" pad="16"/>
<connect gate="G$1" pin="17" pad="17"/>
<connect gate="G$1" pin="18" pad="18"/>
<connect gate="G$1" pin="19" pad="19"/>
<connect gate="G$1" pin="2" pad="2"/>
<connect gate="G$1" pin="20" pad="20"/>
<connect gate="G$1" pin="21" pad="21"/>
<connect gate="G$1" pin="22" pad="22"/>
<connect gate="G$1" pin="23" pad="23"/>
<connect gate="G$1" pin="24" pad="24"/>
<connect gate="G$1" pin="25" pad="25"/>
<connect gate="G$1" pin="26" pad="26"/>
<connect gate="G$1" pin="27" pad="27"/>
<connect gate="G$1" pin="28" pad="28"/>
<connect gate="G$1" pin="29" pad="29"/>
<connect gate="G$1" pin="3" pad="3"/>
<connect gate="G$1" pin="30" pad="30"/>
<connect gate="G$1" pin="31" pad="31"/>
<connect gate="G$1" pin="32" pad="32"/>
<connect gate="G$1" pin="33" pad="33"/>
<connect gate="G$1" pin="34" pad="34"/>
<connect gate="G$1" pin="35" pad="35"/>
<connect gate="G$1" pin="36" pad="36"/>
<connect gate="G$1" pin="37" pad="37"/>
<connect gate="G$1" pin="38" pad="38"/>
<connect gate="G$1" pin="39" pad="39"/>
<connect gate="G$1" pin="4" pad="4"/>
<connect gate="G$1" pin="40" pad="40"/>
<connect gate="G$1" pin="41" pad="41"/>
<connect gate="G$1" pin="42" pad="42"/>
<connect gate="G$1" pin="43" pad="43"/>
<connect gate="G$1" pin="44" pad="44"/>
<connect gate="G$1" pin="45" pad="45"/>
<connect gate="G$1" pin="46" pad="46"/>
<connect gate="G$1" pin="47" pad="47"/>
<connect gate="G$1" pin="48" pad="48"/>
<connect gate="G$1" pin="5" pad="5"/>
<connect gate="G$1" pin="6" pad="6"/>
<connect gate="G$1" pin="7" pad="7"/>
<connect gate="G$1" pin="8" pad="8"/>
<connect gate="G$1" pin="9" pad="9"/>
</connects>
<technologies>
<technology name=""/>
</technologies>
</device>
</devices>
</deviceset>
</devicesets>
</library>
</drawing>
</eagle>
